﻿[
  {
    "CodeName": "Abbreviated Title Source Codes",
    "CodeId": 1,
    "Url": "http://www.loc.gov/standards/sourcelist/abbreviated-title.html",
    "Tags": [
      {
        "Format": 1,
        "Tag": 210,
        "Subfield": "2"
      }
    ]
  },
  {
    "CodeName": "Access Restriction Term Source Codes",
    "CodeId": 2,
    "Tags": [
      {
        "Format": 1,
        "Tag": 506,
        "Subfield": "2"
      }
    ]
  },
  {
    "CodeName": "Availability Status Code Source Codes",
    "CodeId": 3,
    "Tags": [
      {
        "Format": 1,
        "Tag": 366,
        "Subfield": "2"
      }
    ]
  },
  {
    "CodeName": "Caption Abbreviation Source Code",
    "CodeId": 4,
    "Tags": [
    ]
  },
  {
    "CodeName": "Cartographic Data Source Codes",
    "CodeId": 5,
    "Tags": [
      {
        "Format": 1,
        "Tag": 34,
        "Subfield": "2"
      }
    ]
  },
  {
    "CodeName": "Citation Scheme Source Codes",
    "CodeId": 6,
    "Tags": [
      {
        "Format": 1,
        "Tag": 524,
        "Subfield": "2"
      }
    ]
  },
  {
    "CodeName": "Classification Scheme Source Codes",
    "CodeId": 7,
    "Tags": [
      {
        "Format": 1,
        "Tag": 52,
        "Subfield": "2"
      },
      {
        "Format": 1,
        "Tag": 55,
        "Subfield": "2"
      },
      {
        "Format": 1,
        "Tag": 84,
        "Subfield": "2"
      },
      {
        "Format": 1,
        "Tag": 86,
        "Subfield": "2"
      },
      {
        "Format": 1,
        "Tag": 852,
        "Subfield": "2"
      },
      {
        "Format": 2,
        "Tag": 52,
        "Subfield": "2"
      },
      {
        "Format": 2,
        "Tag": 65,
        "Subfield": "2"
      },
      {
        "Format": 2,
        "Tag": 86,
        "Subfield": "2"
      },
      {
        "Format": 2,
        "Tag": 87,
        "Subfield": "2"
      }
    ]
  },
  {
    "CodeName": "Content Advice Classification Source Codes",
    "CodeId": 8,
    "Tags": [
      {
        "Format": 1,
        "Tag": 520,
        "Subfield": "2"
      }
    ]
  },
  {
    "CodeName": "Copyright and Legal Deposit Number Source Codes",
    "CodeId": 9,
    "Tags": [
      {
        "Format": 1,
        "Tag": 17,
        "Subfield": "2"
      }
    ]
  },
  {
    "CodeName": "Country Code and Term Source Codes",
    "CodeId": 10,
    "Tags": [
      {
        "Format": 1,
        "Tag": 44,
        "Subfield": "2"
      }
    ]
  },
  {
    "CodeName": "Curriculum Objective Code and Term Source Codes",
    "CodeId": 11,
    "Tags": [
      {
        "Format": 1,
        "Tag": 658,
        "Subfield": "2"
      }
    ]
  },
  {
    "CodeName": "Date and Time Scheme Source Codes",
    "CodeId": 12,
    "Tags": [
      {
        "Format": 1,
        "Tag": 46,
        "Subfield": "2"
      },
      {
        "Format": 2,
        "Tag": 46,
        "Subfield": "2"
      }
    ]
  },
  {
    "CodeName": "Description Convention Source Codes",
    "CodeId": 13,
    "Tags": [
      {
        "Format": 1,
        "Tag": 40,
        "Subfield": "e"
      },
      {
        "Format": 2,
        "Tag": 40,
        "Subfield": "e"
      }
    ]
  },
  {
    "CodeName": "Entity Type Source Codes ",
    "CodeId": 14,
    "Tags": [
      {
        "Format": 2,
        "Tag": 75,
        "Subfield": "2"
      }
    ]
  },
  {
    "CodeName": "Fingerprint Scheme Source Codes",
    "CodeId": 15,
    "Tags": [
      {
        "Format": 1,
        "Tag": 26,
        "Subfield": "2"
      }
    ]
  },
  {
    "CodeName": "Format Source Codes",
    "CodeId": 16,
    "Tags": [
      {
        "Format": 1,
        "Tag": 886,
        "Subfield": "2"
      },
      {
        "Format": 1,
        "Tag": 887,
        "Subfield": "2"
      }
    ]
  },
  {
    "CodeName": "Frequency of Issue Code and Term Source Codes",
    "CodeId": 17,
    "Tags": [
    ]
  },
  {
    "CodeName": "Function Term Source Code",
    "CodeId": 18,
    "Tags": [
      {
        "Format": 1,
        "Tag": 657,
        "Subfield": "2"
      }
    ]
  },
  {
    "CodeName": "Gender Code and Term Source Codes",
    "CodeId": 19,
    "Tags": [
      {
        "Format": 2,
        "Tag": 375,
        "Subfield": "2"
      }
    ]
  },
  {
    "CodeName": "Genre/Form Code and Term Source Codes",
    "CodeId": 20,
    "Tags": [
      {
        "Format": 1,
        "Tag": 655,
        "Subfield": "2"
      },
      {
        "Format": 1,
        "Tag": 336,
        "Subfield": "2"
      },
      {
        "Format": 1,
        "Tag": 337,
        "Subfield": "2"
      },
      {
        "Format": 1,
        "Tag": 338,
        "Subfield": "2"
      },
      {
        "Format": 2,
        "Tag": 755,
        "Subfield": "2"
      },
      {
        "Format": 2,
        "Tag": 785,
        "Subfield": "2"
      },
      {
        "Format": 2,
        "Tag": 336,
        "Subfield": "2"
      },
      {
        "Format": 2,
        "Tag": 40,
        "Subfield": "f"
      }
    ]
  },
  {
    "CodeName": "Geographic Area Code and Term Source Codes",
    "CodeId": 21,
    "Tags": [
      {
        "Format": 1,
        "Tag": 43,
        "Subfield": "2"
      },
      {
        "Format": 2,
        "Tag": 43,
        "Subfield": "2"
      }
    ]
  },
  {
    "CodeName": "Holdings Scheme Source Codes",
    "CodeId": 22,
    "Tags": [
    ]
  },
  {
    "CodeName": "Human Services Code Source Codes",
    "CodeId": 23,
    "Tags": [
    ]
  },
  {
    "CodeName": "Language Code and Term Source Codes",
    "CodeId": 24,
    "Tags": [
      {
        "Format": 1,
        "Tag": 41,
        "Subfield": "2"
      },
      {
        "Format": 2,
        "Tag": 377,
        "Subfield": "2"
      }
    ]
  },
  {
    "CodeName": "Musical Composition Form Code Source Codes",
    "CodeId": 25,
    "Tags": [
      {
        "Format": 1,
        "Tag": 47,
        "Subfield": "2"
      }
    ]
  },
  {
    "CodeName": "Musical Incipit Scheme Source Codes",
    "CodeId": 26,
    "Tags": [
      {
        "Format": 1,
        "Tag": 31,
        "Subfield": "2"
      },
      {
        "Format": 2,
        "Tag": 31,
        "Subfield": "2"
      }
    ]
  },
  {
    "CodeName": "Musical Instrumentation and Voice Code and Term Source Codes",
    "CodeId": 27,
    "Tags": [
      {
        "Format": 1,
        "Tag": 48,
        "Subfield": "2"
      },
      {
        "Format": 1,
        "Tag": 382,
        "Subfield": "2"
      },
      {
        "Format": 2,
        "Tag": 382,
        "Subfield": "2"
      },
      {
        "Format": 2,
        "Tag": 762,
        "Subfield": "2"
      }
    ]
  },
  {
    "CodeName": "Name and Title Authority Source Codes ",
    "CodeId": 28,
    "Tags": [
      {
        "Format": 1,
        "Tag": 600,
        "Subfield": "2"
      },
      {
        "Format": 1,
        "Tag": 601,
        "Subfield": "2"
      },
      {
        "Format": 1,
        "Tag": 602,
        "Subfield": "2"
      },
      {
        "Format": 1,
        "Tag": 603,
        "Subfield": "2"
      },
      {
        "Format": 1,
        "Tag": 604,
        "Subfield": "2"
      },
      {
        "Format": 1,
        "Tag": 605,
        "Subfield": "2"
      },
      {
        "Format": 1,
        "Tag": 606,
        "Subfield": "2"
      },
      {
        "Format": 1,
        "Tag": 607,
        "Subfield": "2"
      },
      {
        "Format": 1,
        "Tag": 608,
        "Subfield": "2"
      },
      {
        "Format": 1,
        "Tag": 609,
        "Subfield": "2"
      },
      {
        "Format": 1,
        "Tag": 610,
        "Subfield": "2"
      },
      {
        "Format": 1,
        "Tag": 611,
        "Subfield": "2"
      },
      {
        "Format": 1,
        "Tag": 612,
        "Subfield": "2"
      },
      {
        "Format": 1,
        "Tag": 613,
        "Subfield": "2"
      },
      {
        "Format": 1,
        "Tag": 614,
        "Subfield": "2"
      },
      {
        "Format": 1,
        "Tag": 615,
        "Subfield": "2"
      },
      {
        "Format": 1,
        "Tag": 616,
        "Subfield": "2"
      },
      {
        "Format": 1,
        "Tag": 617,
        "Subfield": "2"
      },
      {
        "Format": 1,
        "Tag": 618,
        "Subfield": "2"
      },
      {
        "Format": 1,
        "Tag": 619,
        "Subfield": "2"
      },
      {
        "Format": 1,
        "Tag": 620,
        "Subfield": "2"
      },
      {
        "Format": 1,
        "Tag": 621,
        "Subfield": "2"
      },
      {
        "Format": 1,
        "Tag": 622,
        "Subfield": "2"
      },
      {
        "Format": 1,
        "Tag": 623,
        "Subfield": "2"
      },
      {
        "Format": 1,
        "Tag": 624,
        "Subfield": "2"
      },
      {
        "Format": 1,
        "Tag": 625,
        "Subfield": "2"
      },
      {
        "Format": 1,
        "Tag": 626,
        "Subfield": "2"
      },
      {
        "Format": 1,
        "Tag": 627,
        "Subfield": "2"
      },
      {
        "Format": 1,
        "Tag": 628,
        "Subfield": "2"
      },
      {
        "Format": 1,
        "Tag": 629,
        "Subfield": "2"
      },
      {
        "Format": 1,
        "Tag": 630,
        "Subfield": "2"
      },
      {
        "Format": 1,
        "Tag": 631,
        "Subfield": "2"
      },
      {
        "Format": 1,
        "Tag": 632,
        "Subfield": "2"
      },
      {
        "Format": 1,
        "Tag": 633,
        "Subfield": "2"
      },
      {
        "Format": 1,
        "Tag": 634,
        "Subfield": "2"
      },
      {
        "Format": 1,
        "Tag": 635,
        "Subfield": "2"
      },
      {
        "Format": 1,
        "Tag": 636,
        "Subfield": "2"
      },
      {
        "Format": 1,
        "Tag": 637,
        "Subfield": "2"
      },
      {
        "Format": 1,
        "Tag": 638,
        "Subfield": "2"
      },
      {
        "Format": 1,
        "Tag": 639,
        "Subfield": "2"
      },
      {
        "Format": 1,
        "Tag": 640,
        "Subfield": "2"
      },
      {
        "Format": 1,
        "Tag": 641,
        "Subfield": "2"
      },
      {
        "Format": 1,
        "Tag": 642,
        "Subfield": "2"
      },
      {
        "Format": 1,
        "Tag": 643,
        "Subfield": "2"
      },
      {
        "Format": 1,
        "Tag": 644,
        "Subfield": "2"
      },
      {
        "Format": 1,
        "Tag": 645,
        "Subfield": "2"
      },
      {
        "Format": 1,
        "Tag": 646,
        "Subfield": "2"
      },
      {
        "Format": 1,
        "Tag": 647,
        "Subfield": "2"
      },
      {
        "Format": 1,
        "Tag": 648,
        "Subfield": "2"
      },
      {
        "Format": 1,
        "Tag": 649,
        "Subfield": "2"
      },
      {
        "Format": 1,
        "Tag": 650,
        "Subfield": "2"
      },
      {
        "Format": 1,
        "Tag": 654,
        "Subfield": "2"
      },
      {
        "Format": 1,
        "Tag": 662,
        "Subfield": "2"
      },
      {
        "Format": 1,
        "Tag": 751,
        "Subfield": "2"
      },
      {
        "Format": 1,
        "Tag": 752,
        "Subfield": "2"
      },
      {
        "Format": 2,
        "Tag": 700,
        "Subfield": "2"
      },
      {
        "Format": 2,
        "Tag": 701,
        "Subfield": "2"
      },
      {
        "Format": 2,
        "Tag": 702,
        "Subfield": "2"
      },
      {
        "Format": 2,
        "Tag": 703,
        "Subfield": "2"
      },
      {
        "Format": 2,
        "Tag": 704,
        "Subfield": "2"
      },
      {
        "Format": 2,
        "Tag": 705,
        "Subfield": "2"
      },
      {
        "Format": 2,
        "Tag": 706,
        "Subfield": "2"
      },
      {
        "Format": 2,
        "Tag": 707,
        "Subfield": "2"
      },
      {
        "Format": 2,
        "Tag": 708,
        "Subfield": "2"
      },
      {
        "Format": 2,
        "Tag": 709,
        "Subfield": "2"
      },
      {
        "Format": 2,
        "Tag": 710,
        "Subfield": "2"
      },
      {
        "Format": 2,
        "Tag": 711,
        "Subfield": "2"
      },
      {
        "Format": 2,
        "Tag": 712,
        "Subfield": "2"
      },
      {
        "Format": 2,
        "Tag": 713,
        "Subfield": "2"
      },
      {
        "Format": 2,
        "Tag": 714,
        "Subfield": "2"
      },
      {
        "Format": 2,
        "Tag": 715,
        "Subfield": "2"
      },
      {
        "Format": 2,
        "Tag": 716,
        "Subfield": "2"
      },
      {
        "Format": 2,
        "Tag": 717,
        "Subfield": "2"
      },
      {
        "Format": 2,
        "Tag": 718,
        "Subfield": "2"
      },
      {
        "Format": 2,
        "Tag": 719,
        "Subfield": "2"
      },
      {
        "Format": 2,
        "Tag": 720,
        "Subfield": "2"
      },
      {
        "Format": 2,
        "Tag": 721,
        "Subfield": "2"
      },
      {
        "Format": 2,
        "Tag": 723,
        "Subfield": "2"
      },
      {
        "Format": 2,
        "Tag": 724,
        "Subfield": "2"
      },
      {
        "Format": 2,
        "Tag": 725,
        "Subfield": "2"
      },
      {
        "Format": 2,
        "Tag": 726,
        "Subfield": "2"
      },
      {
        "Format": 2,
        "Tag": 727,
        "Subfield": "2"
      },
      {
        "Format": 2,
        "Tag": 728,
        "Subfield": "2"
      },
      {
        "Format": 2,
        "Tag": 729,
        "Subfield": "2"
      },
      {
        "Format": 2,
        "Tag": 730,
        "Subfield": "2"
      },
      {
        "Format": 2,
        "Tag": 731,
        "Subfield": "2"
      },
      {
        "Format": 2,
        "Tag": 732,
        "Subfield": "2"
      },
      {
        "Format": 2,
        "Tag": 733,
        "Subfield": "2"
      },
      {
        "Format": 2,
        "Tag": 734,
        "Subfield": "2"
      },
      {
        "Format": 2,
        "Tag": 735,
        "Subfield": "2"
      },
      {
        "Format": 2,
        "Tag": 736,
        "Subfield": "2"
      },
      {
        "Format": 2,
        "Tag": 737,
        "Subfield": "2"
      },
      {
        "Format": 2,
        "Tag": 738,
        "Subfield": "2"
      },
      {
        "Format": 2,
        "Tag": 739,
        "Subfield": "2"
      },
      {
        "Format": 2,
        "Tag": 740,
        "Subfield": "2"
      },
      {
        "Format": 2,
        "Tag": 741,
        "Subfield": "2"
      },
      {
        "Format": 2,
        "Tag": 742,
        "Subfield": "2"
      },
      {
        "Format": 2,
        "Tag": 743,
        "Subfield": "2"
      },
      {
        "Format": 2,
        "Tag": 744,
        "Subfield": "2"
      },
      {
        "Format": 2,
        "Tag": 745,
        "Subfield": "2"
      },
      {
        "Format": 2,
        "Tag": 746,
        "Subfield": "2"
      },
      {
        "Format": 2,
        "Tag": 747,
        "Subfield": "2"
      },
      {
        "Format": 2,
        "Tag": 748,
        "Subfield": "2"
      },
      {
        "Format": 2,
        "Tag": 749,
        "Subfield": "2"
      },
      {
        "Format": 2,
        "Tag": 750,
        "Subfield": "2"
      },
      {
        "Format": 2,
        "Tag": 751,
        "Subfield": "2"
      },
      {
        "Format": 2,
        "Tag": 752,
        "Subfield": "2"
      },
      {
        "Format": 2,
        "Tag": 753,
        "Subfield": "2"
      },
      {
        "Format": 2,
        "Tag": 754,
        "Subfield": "2"
      },
      {
        "Format": 2,
        "Tag": 755,
        "Subfield": "2"
      },
      {
        "Format": 2,
        "Tag": 756,
        "Subfield": "2"
      },
      {
        "Format": 2,
        "Tag": 767,
        "Subfield": "2"
      },
      {
        "Format": 2,
        "Tag": 758,
        "Subfield": "2"
      },
      {
        "Format": 2,
        "Tag": 759,
        "Subfield": "2"
      },
      {
        "Format": 2,
        "Tag": 760,
        "Subfield": "2"
      },
      {
        "Format": 2,
        "Tag": 761,
        "Subfield": "2"
      },
      {
        "Format": 2,
        "Tag": 762,
        "Subfield": "2"
      },
      {
        "Format": 2,
        "Tag": 763,
        "Subfield": "2"
      },
      {
        "Format": 2,
        "Tag": 764,
        "Subfield": "2"
      },
      {
        "Format": 2,
        "Tag": 765,
        "Subfield": "2"
      },
      {
        "Format": 2,
        "Tag": 766,
        "Subfield": "2"
      },
      {
        "Format": 2,
        "Tag": 767,
        "Subfield": "2"
      },
      {
        "Format": 2,
        "Tag": 768,
        "Subfield": "2"
      },
      {
        "Format": 2,
        "Tag": 769,
        "Subfield": "2"
      },
      {
        "Format": 2,
        "Tag": 770,
        "Subfield": "2"
      },
      {
        "Format": 2,
        "Tag": 771,
        "Subfield": "2"
      },
      {
        "Format": 2,
        "Tag": 772,
        "Subfield": "2"
      },
      {
        "Format": 2,
        "Tag": 773,
        "Subfield": "2"
      },
      {
        "Format": 2,
        "Tag": 774,
        "Subfield": "2"
      },
      {
        "Format": 2,
        "Tag": 775,
        "Subfield": "2"
      },
      {
        "Format": 2,
        "Tag": 776,
        "Subfield": "2"
      },
      {
        "Format": 2,
        "Tag": 777,
        "Subfield": "2"
      },
      {
        "Format": 2,
        "Tag": 778,
        "Subfield": "2"
      },
      {
        "Format": 2,
        "Tag": 779,
        "Subfield": "2"
      },
      {
        "Format": 2,
        "Tag": 780,
        "Subfield": "2"
      },
      {
        "Format": 2,
        "Tag": 781,
        "Subfield": "2"
      },
      {
        "Format": 2,
        "Tag": 782,
        "Subfield": "2"
      },
      {
        "Format": 2,
        "Tag": 783,
        "Subfield": "2"
      },
      {
        "Format": 2,
        "Tag": 784,
        "Subfield": "2"
      },
      {
        "Format": 2,
        "Tag": 785,
        "Subfield": "2"
      },
      {
        "Format": 2,
        "Tag": 786,
        "Subfield": "2"
      },
      {
        "Format": 2,
        "Tag": 787,
        "Subfield": "2"
      },
      {
        "Format": 2,
        "Tag": 788,
        "Subfield": "2"
      }
    ]
  },
  {
    "CodeName": "National Bibliography Number Source Codes",
    "CodeId": 29,
    "Tags": [
      {
        "Format": 1,
        "Tag": 15,
        "Subfield": "2"
      }
    ]
  },
  {
    "CodeName": "Occupation Term Source Codes",
    "CodeId": 30,
    "Tags": [
      {
        "Format": 1,
        "Tag": 656,
        "Subfield": "2"
      },
      {
        "Format": 2,
        "Tag": 374,
        "Subfield": "2"
      }
    ]
  },
  {
    "CodeName": "Organization Code Source Codes",
    "CodeId": 31,
    "Tags": [
    ]
  },
  {
    "CodeName": "Price Type Code Source Codes",
    "CodeId": 32,
    "Tags": [
      {
        "Format": 1,
        "Tag": 365,
        "Subfield": "2"
      }
    ]
  },
  {
    "CodeName": "Program Code Source Codes",
    "CodeId": 33,
    "Tags": [
    ]
  },
  {
    "CodeName": "Relator and Role Code and Term Source Codes",
    "CodeId": 34,
    "Tags": [
    ]
  },
  {
    "CodeName": "Resource Action Term Source Codes",
    "CodeId": 35,
    "Tags": [
      {
        "Format": 1,
        "Tag": 583,
        "Subfield": "2"
      }
    ]
  },
  {
    "CodeName": "Script Code and Term Source Codes",
    "CodeId": 36,
    "Tags": [
    ]
  },
  {
    "CodeName": "Standard Identifier Source Codes",
    "CodeId": 37,
    "Tags": [
      {
        "Format": 1,
        "Tag": 24,
        "Subfield": "2"
      },
      {
        "Format": 2,
        "Tag": 24,
        "Subfield": "2"
      }
    ]
  },
  {
    "CodeName": "Subject Category Code Source Codes",
    "CodeId": 38,
    "Tags": [
      {
        "Format": 1,
        "Tag": 72,
        "Subfield": "2"
      },
      {
        "Format": 2,
        "Tag": 72,
        "Subfield": "2"
      },
      {
        "Format": 2,
        "Tag": 73,
        "Subfield": "2"
      }
    ]
  },
  {
    "CodeName": "Subject Heading and Term Source Codes",
    "CodeId": 39,
    "Tags": [
      {
        "Format": 1,
        "Tag": 33,
        "Subfield": "2"
      },
      {
        "Format": 1,
        "Tag": 257,
        "Subfield": "2"
      },
      {
        "Format": 1,
        "Tag": 380,
        "Subfield": "2"
      },
      {
        "Format": 1,
        "Tag": 381,
        "Subfield": "2"
      },
      {
        "Format": 1,
        "Tag": 518,
        "Subfield": "2"
      },
      {
        "Format": 1,
        "Tag": 600,
        "Subfield": "2"
      },
      {
        "Format": 1,
        "Tag": 601,
        "Subfield": "2"
      },
      {
        "Format": 1,
        "Tag": 602,
        "Subfield": "2"
      },
      {
        "Format": 1,
        "Tag": 603,
        "Subfield": "2"
      },
      {
        "Format": 1,
        "Tag": 604,
        "Subfield": "2"
      },
      {
        "Format": 1,
        "Tag": 605,
        "Subfield": "2"
      },
      {
        "Format": 1,
        "Tag": 606,
        "Subfield": "2"
      },
      {
        "Format": 1,
        "Tag": 607,
        "Subfield": "2"
      },
      {
        "Format": 1,
        "Tag": 608,
        "Subfield": "2"
      },
      {
        "Format": 1,
        "Tag": 609,
        "Subfield": "2"
      },
      {
        "Format": 1,
        "Tag": 610,
        "Subfield": "2"
      },
      {
        "Format": 1,
        "Tag": 611,
        "Subfield": "2"
      },
      {
        "Format": 1,
        "Tag": 612,
        "Subfield": "2"
      },
      {
        "Format": 1,
        "Tag": 613,
        "Subfield": "2"
      },
      {
        "Format": 1,
        "Tag": 614,
        "Subfield": "2"
      },
      {
        "Format": 1,
        "Tag": 615,
        "Subfield": "2"
      },
      {
        "Format": 1,
        "Tag": 616,
        "Subfield": "2"
      },
      {
        "Format": 1,
        "Tag": 617,
        "Subfield": "2"
      },
      {
        "Format": 1,
        "Tag": 618,
        "Subfield": "2"
      },
      {
        "Format": 1,
        "Tag": 619,
        "Subfield": "2"
      },
      {
        "Format": 1,
        "Tag": 620,
        "Subfield": "2"
      },
      {
        "Format": 1,
        "Tag": 621,
        "Subfield": "2"
      },
      {
        "Format": 1,
        "Tag": 622,
        "Subfield": "2"
      },
      {
        "Format": 1,
        "Tag": 623,
        "Subfield": "2"
      },
      {
        "Format": 1,
        "Tag": 624,
        "Subfield": "2"
      },
      {
        "Format": 1,
        "Tag": 625,
        "Subfield": "2"
      },
      {
        "Format": 1,
        "Tag": 626,
        "Subfield": "2"
      },
      {
        "Format": 1,
        "Tag": 627,
        "Subfield": "2"
      },
      {
        "Format": 1,
        "Tag": 628,
        "Subfield": "2"
      },
      {
        "Format": 1,
        "Tag": 629,
        "Subfield": "2"
      },
      {
        "Format": 1,
        "Tag": 630,
        "Subfield": "2"
      },
      {
        "Format": 1,
        "Tag": 631,
        "Subfield": "2"
      },
      {
        "Format": 1,
        "Tag": 632,
        "Subfield": "2"
      },
      {
        "Format": 1,
        "Tag": 633,
        "Subfield": "2"
      },
      {
        "Format": 1,
        "Tag": 634,
        "Subfield": "2"
      },
      {
        "Format": 1,
        "Tag": 635,
        "Subfield": "2"
      },
      {
        "Format": 1,
        "Tag": 636,
        "Subfield": "2"
      },
      {
        "Format": 1,
        "Tag": 637,
        "Subfield": "2"
      },
      {
        "Format": 1,
        "Tag": 638,
        "Subfield": "2"
      },
      {
        "Format": 1,
        "Tag": 639,
        "Subfield": "2"
      },
      {
        "Format": 1,
        "Tag": 640,
        "Subfield": "2"
      },
      {
        "Format": 1,
        "Tag": 641,
        "Subfield": "2"
      },
      {
        "Format": 1,
        "Tag": 642,
        "Subfield": "2"
      },
      {
        "Format": 1,
        "Tag": 643,
        "Subfield": "2"
      },
      {
        "Format": 1,
        "Tag": 644,
        "Subfield": "2"
      },
      {
        "Format": 1,
        "Tag": 645,
        "Subfield": "2"
      },
      {
        "Format": 1,
        "Tag": 646,
        "Subfield": "2"
      },
      {
        "Format": 1,
        "Tag": 647,
        "Subfield": "2"
      },
      {
        "Format": 1,
        "Tag": 648,
        "Subfield": "2"
      },
      {
        "Format": 1,
        "Tag": 649,
        "Subfield": "2"
      },
      {
        "Format": 1,
        "Tag": 650,
        "Subfield": "2"
      },
      {
        "Format": 1,
        "Tag": 651,
        "Subfield": "2"
      },
      {
        "Format": 1,
        "Tag": 652,
        "Subfield": "2"
      },
      {
        "Format": 1,
        "Tag": 653,
        "Subfield": "2"
      },
      {
        "Format": 1,
        "Tag": 654,
        "Subfield": "2"
      },
      {
        "Format": 1,
        "Tag": 662,
        "Subfield": "2"
      },
      {
        "Format": 1,
        "Tag": 751,
        "Subfield": "2"
      },
      {
        "Format": 1,
        "Tag": 752,
        "Subfield": "2"
      },
      {
        "Format": 2,
        "Tag": 40,
        "Subfield": "f"
      },
      {
        "Format": 2,
        "Tag": 700,
        "Subfield": "2"
      },
      {
        "Format": 2,
        "Tag": 701,
        "Subfield": "2"
      },
      {
        "Format": 2,
        "Tag": 702,
        "Subfield": "2"
      },
      {
        "Format": 2,
        "Tag": 703,
        "Subfield": "2"
      },
      {
        "Format": 2,
        "Tag": 704,
        "Subfield": "2"
      },
      {
        "Format": 2,
        "Tag": 705,
        "Subfield": "2"
      },
      {
        "Format": 2,
        "Tag": 706,
        "Subfield": "2"
      },
      {
        "Format": 2,
        "Tag": 707,
        "Subfield": "2"
      },
      {
        "Format": 2,
        "Tag": 708,
        "Subfield": "2"
      },
      {
        "Format": 2,
        "Tag": 709,
        "Subfield": "2"
      },
      {
        "Format": 2,
        "Tag": 710,
        "Subfield": "2"
      },
      {
        "Format": 2,
        "Tag": 711,
        "Subfield": "2"
      },
      {
        "Format": 2,
        "Tag": 712,
        "Subfield": "2"
      },
      {
        "Format": 2,
        "Tag": 713,
        "Subfield": "2"
      },
      {
        "Format": 2,
        "Tag": 714,
        "Subfield": "2"
      },
      {
        "Format": 2,
        "Tag": 715,
        "Subfield": "2"
      },
      {
        "Format": 2,
        "Tag": 716,
        "Subfield": "2"
      },
      {
        "Format": 2,
        "Tag": 717,
        "Subfield": "2"
      },
      {
        "Format": 2,
        "Tag": 718,
        "Subfield": "2"
      },
      {
        "Format": 2,
        "Tag": 719,
        "Subfield": "2"
      },
      {
        "Format": 2,
        "Tag": 720,
        "Subfield": "2"
      },
      {
        "Format": 2,
        "Tag": 721,
        "Subfield": "2"
      },
      {
        "Format": 2,
        "Tag": 723,
        "Subfield": "2"
      },
      {
        "Format": 2,
        "Tag": 724,
        "Subfield": "2"
      },
      {
        "Format": 2,
        "Tag": 725,
        "Subfield": "2"
      },
      {
        "Format": 2,
        "Tag": 726,
        "Subfield": "2"
      },
      {
        "Format": 2,
        "Tag": 727,
        "Subfield": "2"
      },
      {
        "Format": 2,
        "Tag": 728,
        "Subfield": "2"
      },
      {
        "Format": 2,
        "Tag": 729,
        "Subfield": "2"
      },
      {
        "Format": 2,
        "Tag": 730,
        "Subfield": "2"
      },
      {
        "Format": 2,
        "Tag": 731,
        "Subfield": "2"
      },
      {
        "Format": 2,
        "Tag": 732,
        "Subfield": "2"
      },
      {
        "Format": 2,
        "Tag": 733,
        "Subfield": "2"
      },
      {
        "Format": 2,
        "Tag": 734,
        "Subfield": "2"
      },
      {
        "Format": 2,
        "Tag": 735,
        "Subfield": "2"
      },
      {
        "Format": 2,
        "Tag": 736,
        "Subfield": "2"
      },
      {
        "Format": 2,
        "Tag": 737,
        "Subfield": "2"
      },
      {
        "Format": 2,
        "Tag": 738,
        "Subfield": "2"
      },
      {
        "Format": 2,
        "Tag": 739,
        "Subfield": "2"
      },
      {
        "Format": 2,
        "Tag": 740,
        "Subfield": "2"
      },
      {
        "Format": 2,
        "Tag": 741,
        "Subfield": "2"
      },
      {
        "Format": 2,
        "Tag": 742,
        "Subfield": "2"
      },
      {
        "Format": 2,
        "Tag": 743,
        "Subfield": "2"
      },
      {
        "Format": 2,
        "Tag": 744,
        "Subfield": "2"
      },
      {
        "Format": 2,
        "Tag": 745,
        "Subfield": "2"
      },
      {
        "Format": 2,
        "Tag": 746,
        "Subfield": "2"
      },
      {
        "Format": 2,
        "Tag": 747,
        "Subfield": "2"
      },
      {
        "Format": 2,
        "Tag": 748,
        "Subfield": "2"
      },
      {
        "Format": 2,
        "Tag": 749,
        "Subfield": "2"
      },
      {
        "Format": 2,
        "Tag": 750,
        "Subfield": "2"
      },
      {
        "Format": 2,
        "Tag": 751,
        "Subfield": "2"
      },
      {
        "Format": 2,
        "Tag": 752,
        "Subfield": "2"
      },
      {
        "Format": 2,
        "Tag": 753,
        "Subfield": "2"
      },
      {
        "Format": 2,
        "Tag": 754,
        "Subfield": "2"
      },
      {
        "Format": 2,
        "Tag": 755,
        "Subfield": "2"
      },
      {
        "Format": 2,
        "Tag": 756,
        "Subfield": "2"
      },
      {
        "Format": 2,
        "Tag": 767,
        "Subfield": "2"
      },
      {
        "Format": 2,
        "Tag": 758,
        "Subfield": "2"
      },
      {
        "Format": 2,
        "Tag": 759,
        "Subfield": "2"
      },
      {
        "Format": 2,
        "Tag": 760,
        "Subfield": "2"
      },
      {
        "Format": 2,
        "Tag": 761,
        "Subfield": "2"
      },
      {
        "Format": 2,
        "Tag": 762,
        "Subfield": "2"
      },
      {
        "Format": 2,
        "Tag": 763,
        "Subfield": "2"
      },
      {
        "Format": 2,
        "Tag": 764,
        "Subfield": "2"
      },
      {
        "Format": 2,
        "Tag": 765,
        "Subfield": "2"
      },
      {
        "Format": 2,
        "Tag": 766,
        "Subfield": "2"
      },
      {
        "Format": 2,
        "Tag": 767,
        "Subfield": "2"
      },
      {
        "Format": 2,
        "Tag": 768,
        "Subfield": "2"
      },
      {
        "Format": 2,
        "Tag": 769,
        "Subfield": "2"
      },
      {
        "Format": 2,
        "Tag": 770,
        "Subfield": "2"
      },
      {
        "Format": 2,
        "Tag": 771,
        "Subfield": "2"
      },
      {
        "Format": 2,
        "Tag": 772,
        "Subfield": "2"
      },
      {
        "Format": 2,
        "Tag": 773,
        "Subfield": "2"
      },
      {
        "Format": 2,
        "Tag": 774,
        "Subfield": "2"
      },
      {
        "Format": 2,
        "Tag": 775,
        "Subfield": "2"
      },
      {
        "Format": 2,
        "Tag": 776,
        "Subfield": "2"
      },
      {
        "Format": 2,
        "Tag": 777,
        "Subfield": "2"
      },
      {
        "Format": 2,
        "Tag": 778,
        "Subfield": "2"
      },
      {
        "Format": 2,
        "Tag": 779,
        "Subfield": "2"
      },
      {
        "Format": 2,
        "Tag": 780,
        "Subfield": "2"
      },
      {
        "Format": 2,
        "Tag": 781,
        "Subfield": "2"
      },
      {
        "Format": 2,
        "Tag": 782,
        "Subfield": "2"
      },
      {
        "Format": 2,
        "Tag": 783,
        "Subfield": "2"
      },
      {
        "Format": 2,
        "Tag": 784,
        "Subfield": "2"
      },
      {
        "Format": 2,
        "Tag": 785,
        "Subfield": "2"
      },
      {
        "Format": 2,
        "Tag": 786,
        "Subfield": "2"
      },
      {
        "Format": 2,
        "Tag": 787,
        "Subfield": "2"
      },
      {
        "Format": 2,
        "Tag": 788,
        "Subfield": "2"
      },
      {
        "Format": 2,
        "Tag": 370,
        "Subfield": "2"
      },
      {
        "Format": 2,
        "Tag": 372,
        "Subfield": "2"
      },
      {
        "Format": 2,
        "Tag": 373,
        "Subfield": "2"
      },
      {
        "Format": 2,
        "Tag": 376,
        "Subfield": "2"
      },
      {
        "Format": 2,
        "Tag": 380,
        "Subfield": "2"
      },
      {
        "Format": 2,
        "Tag": 381,
        "Subfield": "2"
      }
    ]
  },
  {
    "CodeName": "Target Audience Code and Term Source Codes ",
    "CodeId": 40,
    "Tags": [
    ]
  },
  {
    "CodeName": "Taxonomic Classification Source Codes",
    "CodeId": 41,
    "Tags": [
      {
        "Format": 1,
        "Tag": 754,
        "Subfield": "2"
      }
    ]
  },
  {
    "CodeName": "Thematic Index Code Source Codes",
    "CodeId": 42,
    "Tags": [
      {
        "Format": 1,
        "Tag": 383,
        "Subfield": "2"
      },
      {
        "Format": 2,
        "Tag": 383,
        "Subfield": "2"
      }
    ]
  },
  {
    "CodeName": "Transcription Scheme Code Source Codes ",
    "CodeId": 43,
    "Tags": [
    ]
  }
]